[gd_scene load_steps=2 format=2]

[ext_resource path="res://gfx/lights/flash_light.png" type="Texture" id=1]

[node name="Flashlight" type="Light2D"]
texture = ExtResource( 1 )

[node name="Sprite" type="Sprite" parent="."]
